ExG_CH1;ExG_CH2;ExG_CH3;ExG_CH4;ExG_CH5;ExG_CH6
644;628;615;600;596;629
678;644;622;603;586;601
355;483;556;593;614;635
463;494;527;556;581;607
734;624;576;556;549;561
470;529;556;569;577;590
253;386;467;518;557;585
718;588;538;522;522;535
560;559;551;545;542;548
200;359;450;504;542;566
623;538;512;511;520;534
658;590;549;526;515;519
325;440;500;530;550;562
452;469;489;509;528;544
723;607;550;522;508;510
450;510;534;543;546;551
234;367;446;494;529;551
638;530;493;483;486;498
388;432;455;470;482;497
1;165;294;378;443;486
370;311;315;343;383;421
436;371;344;341;355;383
233;306;344;370;396;421
515;455;424;411;412;422
832;663;558;491;443;424
556;594;586;561;528;504
367;480;532;552;552;542
819;684;619;583;553;531
651;652;639;622;598;576
310;462;546;592;614;615
723;634;605;599;598;594
705;655;624;606;594;588
380;501;566;602;624;632
536;543;560;578;598;612
769;662;610;585;573;576
488;557;587;600;607;615
325;440;510;555;588;610
781;644;587;565;559;566
604;608;600;593;587;587
257;412;501;552;587;607
701;602;568;561;565;573
688;633;597;577;565;565
346;471;537;573;595;606
522;523;536;553;571;586
737;634;584;559;547;551
447;522;556;572;581;590
302;414;483;527;561;584
747;613;557;536;531;539
558;570;567;562;558;560
220;376;467;520;557;577
672;570;536;529;534;542
651;599;565;546;535;536
299;430;500;538;562;575
504;497;507;522;540;555
713;610;558;532;519;522
420;497;532;548;556;565
287;395;461;504;536;558
724;591;536;514;508;515
528;544;543;539;535;537
181;342;436;492;530;552
651;544;508;501;506;515
628;575;541;522;511;512
287;413;480;517;540;552
511;494;497;508;522;535
705;603;549;521;506;506
402;484;520;537;545;552
300;398;458;498;528;547
733;596;537;513;503;508
536;551;548;542;536;535
213;365;452;503;537;555
676;567;527;515;516;521
637;590;557;537;524;522
299;428;496;532;555;565
544;520;519;528;540;550
735;631;576;545;527;525
442;520;554;567;572;575
348;441;496;532;557;573
787;645;582;553;539;539
580;596;593;585;575;571
243;401;491;542;575;591
733;615;571;558;556;558
702;648;611;588;572;566
353;481;548;583;603;610
602;574;571;578;588;595
767;670;618;589;572;569
455;543;584;603;611;617
368;462;520;559;588;608
773;643;588;566;559;565
560;584;589;588;586;589
224;386;480;536;576;599
715;597;555;545;549;558
668;621;589;570;560;560
323;453;523;560;585;597
578;548;546;554;566;578
721;633;586;560;547;549
405;500;546;569;582;592
352;436;491;529;559;580
750;619;562;539;531;538
537;562;566;564;562;564
223;377;466;519;556;577
712;591;545;532;532;538
638;602;574;556;545;544
287;424;499;541;567;580
571;534;529;537;549;561
706;617;570;545;532;533
399;491;536;558;571;580
358;436;486;521;549;568
762;625;564;537;526;530
541;567;569;565;561;560
243;392;476;526;559;577
733;607;558;542;538;541
641;609;584;566;554;550
284;426;503;546;573;586
570;533;529;538;552;564
699;613;568;545;533;536
399;490;536;559;573;583
371;441;488;521;549;569
735;610;554;530;521;527
501;538;548;551;550;554
225;371;456;508;545;566
708;583;535;520;519;525
614;585;561;545;535;534
265;405;483;526;554;568
580;531;521;526;537;548
699;612;564;538;524;524
372;474;524;548;563;571
358;428;475;509;536;556
717;594;540;517;509;515
487;524;535;538;539;542
194;347;436;490;529;552
690;563;515;501;500;508
588;562;540;526;518;518
244;384;462;506;535;550
586;527;510;512;521;532
690;604;554;527;511;510
367;468;517;540;553;561
371;433;475;505;529;547
719;596;540;516;505;508
483;522;535;538;537;539
222;364;446;497;532;552
726;589;534;514;509;513
630;598;570;550;536;531
277;417;493;533;558;568
611;554;538;538;545;552
705;625;578;552;535;532
395;495;544;567;579;585
428;477;512;538;559;573
753;633;576;550;536;537
516;558;571;573;571;570
252;396;479;529;564;582
733;605;555;538;535;540
619;599;580;566;557;555
275;417;497;542;572;586
613;554;540;543;553;563
660;596;560;542;532;536
261;401;478;521;550;569
224;316;387;441;489;525
474;402;388;397;419;450
206;284;334;371;408;443
45;171;256;321;380;428
698;498;409;376;371;387
701;606;530;478;442;430
372;475;510;515;507;497
717;636;591;562;534;513
781;701;643;599;557;528
453;560;608;624;620;603
501;546;576;597;607;605
809;692;636;608;590;579
555;605;622;627;625;620
300;444;527;578;613;629
766;641;594;579;578;583
640;627;613;604;598;598
285;434;520;569;604;622
660;589;570;572;582;594
717;644;603;580;569;572
385;498;555;585;604;616
463;498;528;553;577;595
747;635;583;559;549;555
480;538;562;572;578;585
257;393;475;526;563;587
736;602;550;533;531;540
583;577;566;557;552;555
228;381;469;521;556;577
636;555;530;529;538;549
672;603;562;540;528;530
352;463;519;549;567;577
458;482;504;525;544;560
734;620;564;536;523;525
466;524;546;554;557;561
248;382;461;510;545;565
719;587;535;517;513;521
572;566;555;545;539;539
222;373;460;510;545;563
623;543;519;518;526;535
651;586;548;527;516;518
315;434;497;530;551;562
436;458;481;503;525;542
702;591;538;513;502;506
431;493;519;529;535;542
224;356;434;484;520;542
699;564;511;493;489;497
553;547;535;525;518;518
206;356;442;492;525;543
631;541;510;505;509;516
659;591;548;523;508;506
312;433;495;527;545;554
454;468;486;505;523;537
721;606;548;520;505;506
446;508;532;541;544;547
269;389;459;503;534;552
743;602;542;518;509;512
571;572;561;550;541;538
238;387;471;518;549;564
673;577;543;534;535;539
684;619;578;553;537;533
346;466;527;558;575;582
504;510;524;540;555;567
758;644;586;556;540;538
483;546;570;579;581;583
320;435;501;542;571;587
780;641;582;557;546;548
601;606;598;588;579;575
249;406;496;547;581;597
698;600;566;559;562;568
697;636;598;576;562;560
352;476;541;575;596;605
511;517;533;551;570;584
739;635;584;559;547;550
455;526;558;572;581;588
301;415;484;529;562;584
748;613;557;537;531;539
569;576;571;564;560;561
228;382;471;523;559;579
685;581;545;537;540;547
673;615;577;555;542;542
312;443;512;549;572;583
508;504;515;531;548;563
732;625;571;544;530;532
455;523;552;564;570;576
325;428;490;529;557;576
753;620;563;540;531;535
552;570;569;565;560;559
222;378;468;521;558;577
674;572;539;531;535;542
652;600;567;548;537;537
315;441;508;545;568;579
520;509;516;530;546;560
729;625;571;543;529;530
440;515;547;561;569;575
308;415;479;520;551;570
733;603;549;527;520;526
544;559;558;555;551;551
208;364;455;509;546;567
668;562;526;518;522;530
644;592;558;538;528;528
319;441;505;539;561;571
520;507;513;525;539;552
694;602;555;531;519;521
395;480;521;541;553;562
304;400;460;501;533;555
730;594;535;512;505;512
541;554;550;544;539;539
196;355;445;498;535;555
673;561;521;511;512;519
634;587;554;534;522;520
290;421;491;528;551;563
528;506;508;518;532;544
715;615;561;533;518;517
426;504;539;554;561;566
338;429;483;519;545;562
742;611;554;529;519;522
525;551;556;554;550;550
194;354;448;504;542;563
681;565;525;515;518;525
615;575;548;532;524;524
271;406;480;520;547;561
529;500;500;510;526;540
703;605;552;525;511;512
403;486;524;542;552;559
335;419;472;507;534;553
745;609;548;522;511;514
539;560;559;554;547;545
223;375;462;512;546;563
714;592;545;529;527;529
646;605;574;554;541;537
301;435;507;545;568;578
563;532;529;537;549;559
719;626;576;550;535;534
408;499;542;562;574;581
350;434;487;524;552;571
735;608;553;531;523;528
522;550;556;556;554;556
218;369;457;510;548;569
677;565;526;516;518;526
570;549;533;524;520;524
169;333;428;484;523;546
389;387;411;440;474;502
462;414;401;405;420;445
98;231;313;368;415;455
89;177;246;304;362;411
619;443;365;338;339;361
544;500;457;426;408;407
328;414;446;455;456;456
795;648;568;518;479;456
708;665;619;577;534;501
360;494;559;584;585;570
657;610;597;593;586;574
763;681;634;605;581;565
438;539;589;613;622;620
425;494;541;575;600;613
785;659;604;581;572;573
549;586;597;600;600;601
254;406;495;550;589;610
743;619;572;559;560;567
662;628;601;585;575;575
303;445;522;565;594;608
619;569;558;563;574;586
738;651;602;576;561;562
415;514;562;586;599;609
401;469;515;548;574;593
749;628;575;552;544;550
509;552;566;571;572;577
234;381;469;523;561;585
737;604;553;537;535;542
641;609;583;566;555;554
277;421;500;545;572;587
600;548;537;542;553;564
697;618;574;551;538;540
384;484;534;560;576;586
395;453;494;525;551;570
736;613;557;533;523;528
487;532;547;552;553;557
220;366;452;505;543;565
703;576;528;513;514;521
591;570;550;538;530;531
237;384;466;513;544;561
573;518;506;511;523;537
654;580;539;518;507;511
352;452;503;530;546;558
396;442;476;502;525;544
728;603;544;516;503;506
479;524;538;540;538;540
220;364;447;497;532;551
717;583;530;512;507;511
595;575;555;541;530;527
234;384;467;514;545;559
601;535;517;519;528;538
684;604;558;533;519;518
367;469;520;545;560;568
420;462;494;518;539;555
749;623;562;533;519;520
509;550;561;562;558;557
247;389;470;519;551;569
747;610;555;534;528;530
628;606;584;568;555;551
278;422;501;545;573;585
661;585;560;557;561;566
731;652;604;575;557;553
412;516;566;589;601;606
471;511;540;563;581;594
782;661;603;575;560;560
529;578;594;598;597;597
290;427;506;555;588;606
778;643;588;568;562;566
643;628;610;597;587;584
271;426;514;563;595;611
653;582;563;565;574;584
705;635;595;573;562;564
380;491;548;578;597;608
450;488;520;546;570;588
758;638;582;556;545;549
498;550;569;576;579;584
264;401;480;530;565;587
750;614;560;541;537;543
606;595;581;569;561;561
266;412;494;541;573;589
650;573;549;547;554;562
690;622;582;559;546;546
360;474;533;563;582;592
475;497;520;541;561;576
743;630;575;549;536;539
477;535;558;567;571;575
260;393;472;521;556;578
733;600;548;530;526;533
592;584;570;560;553;553
230;385;473;524;558;576
624;548;526;526;535;546
660;595;558;537;527;529
338;451;510;542;562;574
458;478;499;519;539;556
741;622;563;534;520;522
469;528;549;556;558;562
272;398;471;516;548;567
741;606;551;529;522;526
589;583;571;560;551;549
220;379;470;521;556;573
634;551;526;525;533;542
654;592;555;536;526;528
329;445;505;538;560;571
471;483;500;519;538;553
724;612;557;529;516;519
449;513;539;549;553;559
269;391;462;507;540;560
740;602;544;522;514;519
570;571;561;551;543;542
233;384;469;519;551;567
661;568;536;530;533;539
668;607;569;546;532;530
338;457;518;550;569;577
471;486;506;526;544;558
707;604;554;531;520;523
425;496;529;544;553;560
255;376;450;497;533;556
724;586;530;509;505;512
546;551;544;536;531;533
199;355;445;497;533;553
651;551;517;510;514;522
643;586;549;527;515;514
315;434;497;530;550;560
491;490;501;516;531;544
738;623;564;533;516;515
469;530;554;561;562;564
315;424;487;526;552;568
753;620;563;539;528;530
582;587;579;570;561;558
235;391;480;531;564;580
664;571;541;536;540;546
669;611;575;554;543;541
333;455;519;553;575;584
520;515;524;538;554;567
743;635;580;551;536;537
462;531;560;572;577;582
327;432;495;535;563;581
730;608;558;538;532;537
517;543;550;552;552;555
125;307;417;484;532;560
498;437;434;451;477;500
373;379;392;408;431;458
2;169;277;350;412;457
295;275;291;323;367;411
668;500;413;374;363;378
516;512;488;465;448;447
427;481;494;492;484;480
832;685;601;547;502;477
648;652;633;605;569;538
302;457;539;579;592;585
742;641;605;592;582;568
706;660;630;610;592;578
360;490;561;600;621;624
585;568;573;586;601;609
777;674;621;595;581;579
469;551;589;607;617;623
356;457;520;561;593;614
777;645;590;568;562;569
583;598;597;594;591;592
253;407;496;549;586;607
731;617;574;563;564;571
672;630;600;581;570;569
317;453;527;567;593;606
549;532;538;552;569;584
726;630;582;558;547;551
429;512;552;572;584;594
337;431;490;530;561;583
744;614;559;537;531;539
527;553;559;558;557;561
195;356;451;508;548;572
689;571;529;519;523;532
644;596;563;544;533;533
288;421;493;532;557;570
537;512;513;524;537;551
713;615;563;536;521;523
409;494;534;552;562;569
330;419;475;512;541;561
725;598;543;521;513;518
511;538;543;543;542;544
193;349;440;496;535;557
656;546;508;500;504;514
595;558;533;519;512;514
256;389;463;505;533;549
530;495;491;500;514;528
686;592;541;513;499;501
362;458;503;525;537;546
307;392;447;485;514;535
713;580;522;498;489;495
503;527;529;527;523;524
209;355;439;489;523;542
683;564;518;503;500;505
619;580;550;531;518;514
270;406;479;519;543;554
545;510;506;514;525;535
682;594;547;522;509;509
381;472;516;538;550;558
369;434;477;508;533;550
758;621;557;528;514;515
546;569;568;562;554;550
249;396;478;525;556;570
737;611;560;542;536;536
665;626;595;574;558;551
309;447;521;560;583;591
596;557;550;556;566;574
728;640;592;566;551;550
423;515;560;581;593;600
401;470;514;546;571;588
768;640;583;557;546;549
528;566;577;578;576;577
223;380;472;527;566;587
725;598;551;538;538;545
640;607;581;564;555;554
281;423;501;544;572;587
589;543;535;541;553;565
718;629;580;554;540;541
423;512;554;574;585;592
401;467;509;539;563;580
739;622;569;545;535;539
507;547;561;564;565;567
221;372;461;516;555;577
713;586;538;524;525;532
624;593;568;553;544;543
273;412;489;533;561;576
600;545;531;535;545;555
711;624;575;548;533;533
391;491;539;562;575;583
386;450;493;524;549;568
736;613;558;534;523;528
505;543;554;557;556;558
240;382;465;515;550;570
723;594;543;526;523;528
608;587;566;553;543;541
256;402;483;528;558;573
606;546;530;532;542;553
708;623;574;547;532;532
404;499;545;567;578;585
420;473;509;535;556;572
738;622;568;543;531;533
497;542;558;563;563;565
241;384;468;519;556;575
728;597;546;529;527;532
616;594;573;559;550;548
263;408;489;534;564;579
614;552;536;537;547;557
699;619;574;549;535;536
383;485;536;562;577;585
427;472;505;531;553;570
743;624;568;541;529;532
490;538;555;560;561;564
244;384;466;517;553;573
730;597;545;527;524;530
600;585;567;555;546;545
247;395;478;526;558;574
632;558;536;535;543;552
706;625;577;551;535;534
376;484;537;562;577;585
428;472;505;531;553;569
720;610;559;536;525;529
461;517;540;549;554;559
222;364;448;501;540;563
702;572;522;507;507;516
589;570;551;539;532;533
246;389;469;514;545;561
626;551;528;525;531;539
688;612;567;541;525;524
371;477;529;555;569;575
459;488;512;533;550;563
758;637;578;549;532;531
490;544;563;568;568;569
256;394;475;524;558;576
745;609;555;535;530;535
612;598;581;568;558;556
268;412;494;540;570;585
657;578;553;550;555;562
686;620;580;558;545;545
350;468;529;561;581;591
450;479;506;531;554;571
727;615;562;538;528;532
456;516;541;551;557;564
198;347;436;493;534;560
601;502;472;470;481;499
362;405;431;450;469;489
1;139;270;357;426;474
372;305;305;332;373;413
519;419;370;353;357;381
335;384;402;411;421;435
539;497;469;452;443;445
838;685;588;523;473;450
584;619;612;589;555;528
361;486;547;574;577;567
810;681;623;594;569;550
647;648;638;625;607;588
295;449;537;587;616;621
707;622;596;593;598;598
728;663;624;603;591;587
393;510;572;604;625;633
520;536;557;577;598;613
772;663;609;584;573;576
493;558;585;597;604;611
297;425;501;549;585;608
764;629;575;556;553;561
601;601;592;583;578;580
252;405;493;544;580;600
681;589;559;554;560;569
703;636;595;572;559;559
366;485;545;576;595;604
497;512;532;551;570;584
726;625;577;554;544;547
440;513;547;563;573;583
276;396;470;518;555;579
731;597;543;525;522;531
567;569;561;554;549;551
211;368;459;512;548;569
650;557;526;522;528;537
659;598;560;538;526;527
334;451;512;544;563;573
487;492;506;523;540;554
712;609;558;532;519;521
422;496;529;544;553;560
260;380;452;499;534;557
729;589;531;510;505;512
556;559;550;542;536;536
212;366;453;504;538;557
651;555;521;514;518;525
629;578;545;527;516;517
284;413;483;521;545;558
473;471;484;501;521;536
703;595;541;514;501;504
411;485;516;530;538;546
265;378;446;489;521;543
710;576;521;499;493;499
545;549;541;533;526;526
209;361;447;497;530;547
675;567;527;515;515;519
664;605;565;540;524;519
333;454;515;546;563;568
521;514;521;533;545;554
738;633;578;549;532;529
461;530;560;571;575;577
352;448;504;540;566;580
775;639;579;553;542;542
591;601;595;587;577;573
267;416;501;550;581;596
729;619;578;565;564;566
694;643;608;586;571;566
364;488;552;586;605;612
575;560;563;574;586;596
753;657;608;581;567;566
446;531;571;590;601;609
339;441;504;547;579;601
763;629;574;553;547;555
567;583;583;579;576;578
228;386;478;532;570;592
702;592;553;544;547;555
677;624;588;567;555;554
334;462;528;564;586;596
556;539;541;552;565;577
738;641;590;563;549;549
445;525;562;579;588;594
337;436;497;537;567;587
744;616;563;542;536;543
553;571;572;569;566;568
240;389;476;528;564;584
708;594;552;540;542;547
637;599;572;555;546;546
287;424;499;542;569;583
537;512;515;528;545;560
719;619;567;541;528;531
420;501;539;557;567;575
335;425;481;519;547;568
736;606;550;527;519;525
526;551;555;553;550;552
228;376;461;512;548;568
698;582;538;525;525;531
623;587;560;544;533;533
291;423;495;535;560;572
568;531;525;532;543;554
707;618;569;542;527;527
400;491;534;555;566;574
352;433;485;520;547;566
742;612;555;530;521;525
530;556;560;558;554;554
221;373;461;513;549;569
705;585;540;527;526;531
636;597;569;550;539;537
286;423;497;538;563;575
558;524;521;530;543;554
709;617;568;542;528;528
400;490;534;555;567;575
356;433;484;519;546;565
745;613;555;530;520;524
523;552;557;556;553;554
209;364;454;508;545;566
690;571;528;516;518;525
609;577;552;537;529;529
272;407;482;524;551;565
560;519;512;519;531;544
679;596;550;526;514;516
371;466;513;537;551;562
339;414;464;499;527;548
708;583;528;506;498;505
481;517;527;529;529;532
187;339;427;482;520;542
685;559;511;496;496;502
620;579;548;528;516;514
265;403;477;516;541;552
572;525;514;517;526;535
717;622;569;538;520;516
412;501;542;559;567;570
389;457;500;528;550;563
742;619;564;538;525;526
515;551;561;562;559;558
215;368;457;512;549;569
695;574;530;518;519;526
605;576;554;541;534;534
269;405;481;525;553;568
591;536;522;526;536;547
691;609;562;537;523;523
382;479;527;550;564;572
387;447;488;518;542;560
718;599;546;523;513;518
427;489;515;527;533;540
58;248;365;440;495;529
473;393;384;400;427;456
323;338;355;375;401;430
1;153;254;323;384;429
466;368;338;342;366;396
712;558;465;413;387;388
479;516;512;496;478;469
507;530;530;521;506;495
826;694;618;566;521;494
589;626;628;613;585;558
306;453;534;577;595;592
783;658;609;590;578;566
665;645;627;614;600;588
314;459;541;588;616;624
664;601;584;587;597;604
758;674;626;600;586;584
437;538;587;612;626;633
471;519;553;580;602;618
774;659;606;583;573;576
515;568;588;596;599;604
262;406;492;546;585;608
754;621;570;554;554;562
633;613;593;580;573;574
271;420;504;551;584;601
635;569;551;553;564;576
722;640;593;568;555;555
391;498;551;577;593;603
434;482;517;544;568;585
742;627;574;550;540;545
503;550;567;572;573;577
255;394;476;526;562;583
720;595;547;532;530;538
589;577;564;555;549;551
234;385;472;523;557;576
620;546;526;527;538;550
673;601;560;537;526;529
345;456;513;543;562;574
415;455;486;513;537;555
731;608;551;524;513;517
487;532;547;551;551;554
249;384;462;509;542;561
712;585;535;517;513;518
566;560;549;540;534;534
210;365;453;505;541;559
606;530;508;509;520;531
660;587;545;522;511;513
338;447;502;531;549;559
439;465;488;509;529;544
705;595;542;516;504;507
455;509;530;537;540;544
250;378;453;499;532;551
712;581;529;509;504;509
562;557;545;536;528;528
217;368;454;504;537;554
625;542;516;513;520;528
675;601;557;532;517;516
348;459;514;542;558;565
470;488;507;525;541;553
770;643;579;546;528;525
510;560;575;577;573;571
302;428;499;541;568;582
782;643;584;559;548;547
637;626;609;594;581;574
289;437;520;565;593;605
694;609;581;575;578;581
721;654;613;590;575;571
392;506;564;594;612;619
505;526;548;569;588;601
754;647;596;572;561;564
485;548;575;587;593;600
299;422;496;543;578;600
764;628;573;553;548;555
600;599;589;580;573;574
250;404;492;543;577;596
682;590;559;554;559;567
699;635;594;571;557;557
374;489;547;577;595;603
516;527;542;559;575;588
775;660;602;573;557;556
501;563;587;595;597;599
305;430;504;550;582;600
763;631;578;558;552;558
589;594;588;582;577;577
241;398;488;541;578;597
668;578;549;546;554;563
675;616;580;560;550;552
342;462;525;559;582;593
501;507;522;539;558;573
744;633;578;551;537;540
475;537;563;573;577;582
296;415;485;529;561;581
734;606;554;535;530;537
550;561;560;556;553;556
213;369;460;514;552;573
657;559;527;522;529;539
661;600;562;541;529;530
318;441;505;539;561;572
497;497;508;524;540;554
727;619;564;536;522;523
444;515;544;556;562;567
290;403;471;514;545;565
722;594;541;522;516;522
548;557;553;548;544;545
230;378;463;513;548;566
664;566;530;523;526;532
646;594;560;540;529;528
311;436;502;537;560;570
491;491;503;519;537;551
709;606;554;529;516;518
429;501;533;547;555;562
290;397;463;505;537;557
725;592;537;515;508;515
545;554;550;544;539;539
199;357;448;501;537;557
657;554;518;511;515;522
644;589;553;532;520;520
292;421;490;526;549;560
494;487;496;510;527;541
695;595;544;520;507;509
405;483;519;535;545;553
281;385;449;492;524;546
709;578;523;501;495;502
538;546;541;534;529;529
209;360;446;497;531;549
671;562;522;510;511;516
656;600;562;539;524;519
330;450;511;543;560;567
550;530;530;538;547;554
721;626;575;548;531;528
423;507;546;563;571;576
320;418;480;521;551;570
736;606;551;529;522;528
543;560;560;556;552;553
226;377;464;516;551;571
694;580;539;527;528;535
630;591;562;545;534;534
295;426;497;536;561;573
548;521;520;529;543;555
734;630;574;545;529;529
432;513;549;564;572;577
316;417;479;519;548;568
685;573;529;513;510;520
401;460;488;504;516;528
1;191;322;406;470;512
403;335;336;361;399;436
379;350;343;352;374;404
168;261;318;358;397;429
568;468;422;406;408;422
805;650;548;483;439;424
522;574;575;556;529;509
438;513;545;555;549;538
817;689;624;585;550;528
609;633;632;622;601;579
301;451;537;584;609;611
769;653;609;595;590;583
705;665;636;618;604;595
362;494;566;605;629;636
623;591;588;597;609;617
768;677;628;603;590;589
460;550;594;615;627;635
407;486;538;574;603;622
789;660;604;581;573;579
566;595;602;603;601;604
257;411;500;555;593;615
743;621;576;564;566;573
669;632;604;587;577;577
316;453;528;570;597;611
599;561;556;564;577;589
730;643;595;570;558;560
419;513;559;582;596;606
390;463;511;545;574;593
760;634;578;554;545;551
516;555;568;571;571;575
204;364;459;517;558;582
697;575;533;523;527;537
615;582;559;545;538;541
261;402;480;525;555;572
562;520;513;520;534;549
705;612;561;535;521;523
411;498;538;557;567;574
376;447;492;522;546;563
729;608;554;530;519;523
494;533;546;549;549;551
203;356;446;501;540;562
690;567;521;508;510;518
599;569;546;532;525;526
248;389;467;512;542;557
566;516;505;511;524;536
684;597;549;523;509;511
379;473;518;540;553;561
371;434;477;506;531;548
718;596;541;516;505;509
479;520;533;536;536;538
201;350;437;491;528;549
699;569;520;503;502;508
608;577;552;535;524;522
265;402;478;519;545;557
592;537;522;524;532;540
701;615;566;539;522;520
403;496;540;560;570;575
435;482;514;537;555;568
786;654;590;558;540;537
561;592;596;592;583;577
275;421;503;551;581;594
744;622;575;559;554;555
653;626;604;589;577;572
301;442;521;565;593;605
635;578;563;566;576;585
730;648;602;576;562;562
423;520;568;591;605;612
450;499;534;560;583;598
769;650;595;569;557;560
522;568;583;588;588;590
259;404;489;541;578;599
736;609;561;546;546;553
623;603;585;572;565;566
259;409;493;542;574;592
611;551;537;541;554;566
704;623;577;553;541;543
391;492;542;568;582;592
429;476;510;536;558;575
748;628;573;547;534;538
494;543;560;565;566;569
247;388;471;522;558;578
725;596;546;529;527;534
596;583;567;556;548;548
258;402;483;530;561;577
628;557;537;537;545;554
685;612;570;546;533;534
358;469;525;554;572;581
424;464;496;522;546;563
729;612;557;532;521;525
493;537;551;555;556;559
259;392;470;517;550;569
729;598;546;526;521;526
592;581;566;554;546;544
243;392;476;524;556;572
621;549;529;530;538;547
677;605;562;540;527;528
365;471;524;552;568;577
442;475;502;525;545;561
737;620;563;537;523;525
482;534;552;558;559;562
253;389;468;516;550;569
729;597;544;525;520;526
596;584;568;557;548;546
246;394;478;526;558;573
629;555;533;532;540;548
665;600;561;540;529;530
343;457;515;546;566;576
444;471;496;519;541;557
730;614;558;531;519;522
458;516;539;548;552;557
239;374;454;503;539;560
715;581;529;511;508;515
572;564;551;541;534;534
230;377;461;510;543;560
641;555;526;522;528;535
674;604;561;537;523;522
340;456;514;544;562;571
447;472;496;518;538;553
732;615;559;531;518;520
470;525;545;553;555;559
266;394;467;513;545;564
737;601;545;524;518;522
588;582;568;557;548;546
237;389;475;524;556;571
647;563;536;533;538;544
678;611;571;548;534;533
360;472;528;558;575;582
487;501;519;537;553;566
735;627;574;547;533;534
475;534;558;567;570;574
286;409;482;527;559;577
754;617;561;539;532;536
603;598;585;573;564;561
262;410;494;541;572;587
678;589;559;553;556;560
697;632;592;569;554;552
346;470;534;568;588;597
452;478;506;531;555;572
629;552;521;511;511;523
257;372;437;478;508;534
1;171;289;373;442;493
462;352;328;340;371;411
405;382;369;371;386;412
193;287;340;375;407;434
702;553;478;441;425;424
771;662;579;519;473;451
452;545;574;573;556;535
599;596;592;585;570;553
794;698;642;605;571;547
518;589;619;627;621;607
354;473;543;586;611;618
808;672;616;594;585;582
639;641;633;624;616;610
290;444;532;583;616;632
713;621;592;587;592;598
694;644;613;595;586;587
366;489;555;592;615;627
546;543;555;572;590;605
762;658;606;580;568;571
469;543;576;592;601;610
318;432;501;546;580;603
771;634;577;556;550;558
583;593;588;583;578;580
239;395;485;539;575;596
686;587;553;547;552;560
672;617;582;563;552;553
332;458;524;560;583;594
522;517;526;542;559;573
726;626;575;550;538;541
422;503;541;560;571;580
290;400;468;514;549;572
726;594;540;520;516;525
544;556;553;548;545;548
204;360;451;504;542;563
657;555;520;513;518;526
628;580;548;530;520;521
295;422;490;526;550;562
506;493;499;512;528;542
691;595;546;521;508;511
403;482;518;536;545;554
286;389;452;494;526;547
697;570;518;498;494;501
503;523;525;523;522;525
179;333;424;479;517;539
650;539;500;491;494;503
615;565;532;512;501;501
274;403;471;508;531;543
516;492;492;501;514;526
707;604;548;519;502;501
409;488;523;537;544;549
300;399;460;498;527;544
726;592;534;510;501;504
532;548;546;541;535;534
209;361;449;500;534;552
688;572;529;516;515;519
650;600;565;543;528;524
317;443;508;542;562;570
569;539;534;540;549;556
737;640;586;556;537;533
436;520;558;574;580;584
367;453;506;541;566;581
774;639;580;554;542;543
557;582;584;581;575;573
248;400;487;538;573;590
731;612;567;554;552;556
688;639;604;582;567;563
335;468;538;574;596;605
573;550;551;561;574;584
738;645;596;571;557;557
433;520;562;583;594;602
367;452;506;544;572;592
773;638;579;555;545;551
558;582;585;582;578;579
228;386;478;532;569;590
707;592;551;541;543;550
647;607;579;562;553;553
309;441;512;552;578;591
578;543;538;545;558;570
735;640;588;560;545;545
421;512;555;574;585;592
372;453;504;538;565;583
751;624;569;546;536;541
528;560;568;569;567;569
225;378;467;522;559;580
710;589;545;533;534;540
636;600;572;556;546;545
284;423;499;541;568;581
562;527;523;532;546;559
701;613;566;542;529;531
402;492;535;557;570;578
375;446;491;524;550;568
733;609;554;530;521;526
508;543;552;553;552;554
216;366;454;507;544;565
702;578;532;519;519;525
622;587;561;544;534;533
279;415;490;530;557;569
581;535;525;529;540;550
713;623;572;544;529;528
404;496;540;561;572;578
385;453;497;528;552;568
733;612;558;534;524;528
510;546;556;558;557;558
234;379;464;515;551;571
703;583;538;524;523;529
593;572;554;542;535;536
243;389;471;518;550;567
573;520;510;516;529;543
691;604;555;529;516;518
382;477;522;545;558;567
383;444;485;514;538;555
739;612;553;526;514;517
489;532;545;548;547;548
211;360;448;501;538;558
703;576;528;513;511;517
611;581;556;541;531;529
267;405;482;524;551;564
588;534;521;524;534;544
692;609;563;537;522;522
381;479;527;551;564;572
398;453;492;520;543;560
731;609;554;528;517;521
492;535;548;551;551;552
234;375;458;509;544;563
729;596;542;524;520;524
632;602;575;557;545;541
288;427;501;542;567;578
624;564;547;547;553;560
690;620;578;554;540;539
381;485;538;564;580;588
423;471;507;534;557;574
753;629;572;545;533;536
504;549;564;567;566;568
250;391;474;524;559;578
727;600;550;533;530;536
608;590;572;559;551;550
241;393;480;528;561;578
568;517;509;518;534;548
579;533;510;501;501;512
177;325;413;466;505;533
160;250;323;383;438;482
458;367;343;349;372;407
262;306;333;355;382;413
157;246;301;343;383;417
748;553;457;410;390;392
690;619;553;502;462;441
348;468;515;527;522;509
698;623;586;563;541;521
748;676;627;591;555;530
415;527;582;604;607;597
494;530;559;581;594;595
803;681;622;594;576;568
547;596;612;616;614;609
307;444;523;571;604;619
783;652;599;581;576;578
656;640;622;609;600;597
300;449;532;579;611;625
677;605;583;583;591;599
722;653;613;591;579;580
390;504;563;594;613;624
461;500;532;560;584;603
753;639;586;563;555;561
520;565;581;587;590;596
287;419;496;543;577;599
736;612;563;547;544;552
591;586;576;569;564;566
249;399;485;536;571;590
649;568;544;543;551;562
694;622;579;556;544;545
367;478;534;563;581;591
464;492;516;538;558;574
743;628;573;547;534;537
482;538;559;567;570;574
265;397;474;522;557;577
722;594;544;527;524;532
575;571;561;553;548;549
238;387;472;522;556;574
640;558;531;529;536;545
668;603;564;542;529;530
350;462;520;549;568;577
456;480;503;524;544;559
711;605;554;529;518;522
451;511;537;547;553;559
242;373;451;500;536;559
704;574;523;506;504;513
553;550;540;533;528;530
208;360;447;498;533;553
638;545;515;510;516;524
666;597;554;529;515;514
336;450;508;537;554;562
460;478;497;515;533;546
720;608;554;527;513;513
453;514;538;548;551;555
279;397;466;510;541;559
739;603;546;523;516;519
577;576;564;554;545;543
249;395;478;525;556;570
692;591;555;544;544;547
719;647;600;571;552;545
370;490;549;577;592;596
507;522;540;557;572;582
753;645;592;566;551;550
482;547;574;585;590;593
327;439;505;547;577;595
767;634;579;557;550;554
587;595;589;582;576;576
251;404;493;544;579;597
683;589;558;552;557;565
683;625;588;568;556;556
343;467;531;566;588;598
505;511;527;545;564;578
751;639;583;556;543;545
469;536;564;575;581;587
306;421;490;533;565;585
758;623;566;544;537;543
584;588;581;573;567;566
233;390;480;532;567;586
670;575;544;539;544;552
666;610;575;555;544;544
335;456;520;554;576;587
497;501;516;533;551;566
713;612;562;539;527;531
433;506;539;554;563;572
292;402;469;512;545;567
734;600;544;523;517;524
545;557;554;549;544;546
204;362;453;506;543;563
653;554;520;514;519;527
645;590;554;535;523;523
316;437;501;535;556;566
519;508;513;525;539;550
726;622;567;538;522;522
444;517;548;560;565;570
319;422;483;522;551;568
743;613;556;533;524;528
560;572;568;562;556;554
234;385;473;524;558;575
667;569;535;528;532;539
631;587;558;542;533;534
286;418;490;530;557;571
497;487;496;513;532;548
702;599;547;522;511;515
415;491;525;541;550;559
320;413;469;506;535;555
749;611;549;523;512;516
553;567;563;555;547;545
231;383;469;518;550;566
702;590;547;534;533;535
659;612;578;557;543;538
305;439;510;548;571;580
523;511;518;532;548;560
710;613;564;540;528;529
425;503;540;558;568;575
335;426;482;520;549;568
738;608;552;529;521;526
528;551;554;552;549;551
196;356;449;505;544;565
673;561;522;513;517;526
627;582;552;534;525;526
291;419;489;527;551;563
542;514;512;521;534;545
716;617;563;535;519;519
430;508;543;558;564;569
359;442;493;526;550;566
756;624;566;540;527;529
538;564;567;564;559;558
228;381;469;522;557;575
705;588;545;533;533;538
653;609;577;558;546;543
307;439;510;548;572;583
570;538;535;543;555;565
736;639;585;557;541;540
434;520;558;575;584;589
364;450;502;538;564;582
769;636;577;551;540;543
556;580;582;579;573;573
242;396;484;536;570;588
686;581;545;537;539;546
582;564;550;542;539;543
166;336;435;494;536;561
362;372;405;441;480;512
437;394;387;396;416;447
115;236;312;366;413;455
156;219;272;321;373;419
696;504;413;373;364;380
605;558;508;469;441;433
346;447;484;494;491;486
794;661;590;546;509;485
729;684;641;602;561;529
363;502;571;600;605;592
643;606;599;601;600;591
784;693;643;615;592;579
473;565;609;629;637;635
441;512;559;592;616;628
802;677;622;598;588;589
566;603;614;616;616;616
272;424;513;567;606;626
756;633;587;574;576;583
658;630;608;594;587;588
304;447;526;571;602;618
603;561;555;563;578;593
713;632;589;567;557;562
411;506;554;578;594;606
402;466;510;543;570;591
758;633;577;552;543;549
528;564;574;575;574;577
245;393;479;531;567;588
733;605;557;542;540;546
636;607;583;568;558;557
288;427;504;548;576;590
586;542;535;542;555;567
691;611;568;546;536;539
377;478;529;556;573;584
389;447;489;520;547;568
731;608;553;529;520;526
503;539;550;552;552;555
211;363;451;504;542;564
689;567;522;509;510;519
593;568;547;534;528;529
253;393;470;514;545;560
580;526;512;516;527;538
682;599;553;527;514;515
369;469;518;542;556;565
384;440;480;509;533;550
705;590;538;515;505;510
473;516;531;535;536;540
216;358;441;493;529;551
684;561;514;499;499;506
566;550;533;522;516;517
222;367;449;497;529;546
575;513;497;500;511;524
663;582;536;511;498;500
350;452;501;527;541;550
399;443;475;500;521;537
741;611;549;519;503;504
501;540;549;548;543;541
253;390;467;513;543;558
734;602;548;527;520;521
631;605;581;563;550;543
282;423;501;543;569;579
652;581;558;555;559;563
737;653;603;573;554;549
411;515;565;588;599;603
461;505;536;560;579;591
770;652;597;570;556;556
529;574;589;592;591;591
272;414;497;547;582;600
740;614;566;551;549;555
612;600;585;575;569;569
262;410;495;544;577;595
636;566;547;549;559;569
712;632;586;561;548;549
381;490;544;571;588;597
448;486;517;541;563;580
755;636;580;553;541;544
504;552;569;574;574;577
264;401;482;531;565;585
735;605;555;538;534;540
612;597;580;568;560;559
263;410;492;539;570;586
631;561;542;543;551;560
686;615;574;552;540;541
358;470;528;558;577;587
432;469;499;525;549;567
733;615;560;535;525;529
489;536;553;558;560;564
261;394;471;518;551;571
716;590;541;523;520;526
578;572;560;551;544;545
249;393;475;523;555;571
627;552;529;528;536;545
665;599;560;538;526;528
354;464;520;549;567;576
461;483;505;526;545;559
729;617;563;536;523;525
474;528;549;557;559;562
273;399;473;519;551;569
737;604;549;529;523;527
590;584;571;560;551;549
229;384;472;523;556;573
630;552;529;528;536;545
674;604;563;541;529;530
343;457;516;547;566;576
458;479;501;522;542;557
738;621;564;536;522;524
479;533;553;559;561;564
281;405;477;521;552;570
730;601;548;528;523;527
584;580;569;559;551;550
251;397;480;528;560;576
640;560;535;533;539;546
650;594;560;541;531;532
327;446;509;543;565;577
474;485;502;521;541;557
737;622;564;536;522;524
452;517;543;553;558;563
266;391;465;511;544;564
725;593;539;519;514;520
558;561;554;547;541;542
209;364;454;507;543;562
630;543;516;513;521;530
641;581;545;525;515;517
330;443;502;533;554;563
484;488;500;516;532;546
727;616;560;531;516;516
447;513;540;550;554;558
282;399;468;511;542;561
746;607;549;525;517;521
582;581;570;559;550;547
248;396;480;527;558;573
689;590;553;543;544;547
691;629;588;564;548;543
357;477;538;569;586;592
516;521;534;549;565;575
750;643;589;561;546;546
474;541;569;580;585;589
313;429;497;540;570;589
754;622;568;548;541;546
571;582;579;573;569;569
229;385;476;530;567;586
662;568;538;535;542;550
606;568;545;533;529;534
188;350;443;497;535;558
280;329;380;426;471;507
437;381;371;381;404;436
160;254;314;359;401;441
143;220;278;327;376;420
733;529;431;387;373;385
651;592;533;487;452;439
349;458;500;511;507;498
765;655;596;559;527;503
738;683;638;600;561;531
409;530;589;613;615;601
589;584;592;601;605;599
791;691;640;612;592;580
501;577;611;626;631;630
373;478;542;583;613;628
784;657;605;585;579;584
590;608;609;607;605;606
276;426;513;565;602;622
729;623;585;575;578;585
693;644;611;592;581;581
342;474;545;583;608;620
545;537;547;563;581;596
737;640;592;569;558;562
450;528;564;582;593;603
342;441;502;542;574;595
758;627;572;549;543;550
559;577;578;575;572;574
233;388;478;531;568;589
694;587;549;540;543;552
635;595;568;552;544;546
297;429;502;542;569;583
537;515;517;530;546;561
733;628;573;545;531;533
422;505;543;560;569;577
312;414;476;517;547;568
743;608;550;528;520;526
555;568;565;559;554;554
227;380;467;518;552;571
687;578;539;528;529;535
623;585;559;543;534;534
281;416;490;531;558;571
530;506;508;520;536;550
702;606;556;531;518;520
390;479;521;542;554;563
303;398;459;499;531;553
706;578;525;505;499;507
490;518;525;526;526;531
169;327;420;477;517;541
660;542;500;489;493;501
619;570;536;516;505;505
278;408;476;512;535;546
540;507;502;509;519;529
695;602;551;523;507;505
389;477;519;538;547;553
341;420;471;505;531;548
735;602;543;518;507;509
540;559;558;552;545;543
255;395;474;520;550;564
726;605;556;538;533;532
654;616;585;564;549;543
305;442;515;554;577;585
588;550;544;550;560;568
745;648;595;566;549;546
440;526;566;583;592;596
383;463;513;547;572;588
763;636;580;556;546;549
564;587;590;586;582;581
255;405;492;542;577;595
723;607;564;551;551;556
648;614;589;573;563;562
310;444;518;560;586;599
590;551;545;553;565;577
710;627;582;559;547;549
408;501;547;570;584;594
383;455;502;535;562;582
752;625;568;544;534;540
534;565;571;571;568;570
234;384;472;524;560;581
701;584;542;530;531;538
611;583;562;549;542;543
279;415;490;533;562;577
590;540;528;533;545;556
690;610;565;540;527;529
381;479;527;551;566;576
383;446;489;520;545;564
747;617;558;532;521;525
517;551;559;559;556;556
225;375;461;513;549;568
727;596;545;528;525;529
643;608;580;561;548;544
291;431;506;546;571;582
614;561;547;549;556;564
730;643;593;565;548;545
419;514;560;581;591;597
411;475;517;547;570;586
752;632;577;553;543;546
505;551;567;572;572;574
225;376;465;521;560;582
717;590;543;529;530;538
611;586;565;552;546;547
259;403;484;530;561;577
588;534;522;527;539;552
687;606;561;537;525;528
365;468;519;546;562;573
382;440;480;511;537;557
720;598;543;519;510;515
487;527;539;542;543;546
213;359;444;496;533;554
688;565;518;504;503;510
581;560;541;528;521;522
240;382;462;507;538;553
589;526;509;511;521;531
678;597;551;525;510;511
369;468;517;540;554;562
399;449;485;511;533;549
718;600;545;520;508;511
473;520;537;541;541;544
212;357;442;494;531;552
692;565;517;502;501;508
579;560;541;529;522;522
230;376;457;504;536;552
594;527;508;509;519;529
673;595;549;524;509;510
374;471;519;542;555;562
436;473;500;521;539;552
760;632;570;538;521;520
490;542;559;561;559;557
252;391;471;520;553;569
736;604;551;532;527;529
619;599;578;564;553;549
274;418;497;541;569;582
632;564;545;545;552;560
694;622;579;556;542;542
384;488;540;567;583;591
446;484;514;538;559;575
726;616;565;541;531;535
478;530;551;559;562;567
249;385;465;515;551;572
701;578;532;517;517;525
510;522;523;523;524;531
57;255;374;448;501;533
378;350;369;402;441;475
396;361;355;366;388;420
135;242;309;357;401;439
366;345;346;362;388;418
785;597;492;434;403;401
587;587;556;522;489;472
375;480;521;533;528;518
823;687;617;574;537;512
694;677;652;624;592;562
327;480;561;602;618;612
695;626;607;605;604;598
739;673;635;614;598;589
419;529;587;617;635;639
499;531;560;585;607;620
778;665;612;589;579;582
530;581;601;609;613;618
309;439;515;563;598;619
772;641;588;570;566;573
619;615;604;595;589;590
275;425;511;561;595;613
681;597;571;568;575;584
706;641;602;580;568;569
369;487;549;581;601;612
487;509;533;555;576;592
761;646;590;564;552;556
479;543;569;580;585;591
270;402;481;531;567;590
736;605;554;537;535;543
588;583;572;564;559;561
239;391;479;529;564;583
647;563;537;534;542;552
672;608;570;548;537;538
345;460;520;552;572;583
478;492;511;530;549;564
716;610;559;535;524;527
453;515;542;553;559;566
275;395;466;512;545;566
718;589;537;518;514;521
556;559;551;544;539;541
211;365;454;506;542;561
625;539;512;510;518;528
636;577;542;523;513;515
302;423;487;522;545;557
449;460;479;499;520;536
697;588;534;509;498;502
424;489;517;528;535;542
256;374;444;488;521;541
717;581;524;502;495;500
553;554;544;534;526;525
201;358;446;497;531;548
632;540;510;505;510;517
644;584;546;524;512;511
337;447;504;534;551;559
508;504;512;524;536;546
743;631;573;541;523;520
453;523;552;562;565;567
295;410;478;521;550;567
740;608;552;531;523;527
579;580;571;563;555;553
253;399;482;530;562;577
688;588;552;543;544;548
687;628;589;565;550;546
368;483;542;572;588;594
543;539;547;559;571;580
762;656;601;572;555;553
476;548;578;591;595;598
330;440;506;548;578;596
756;628;574;554;548;553
569;583;581;577;574;575
235;391;482;535;572;592
686;584;550;543;548;556
658;608;576;558;548;549
316;444;513;551;575;588
514;508;518;534;552;567
726;622;570;544;531;534
443;516;548;563;570;578
317;420;482;523;553;574
738;608;553;532;524;530
550;564;562;558;554;555
215;372;462;516;552;572
674;569;532;524;528;535
638;591;559;541;531;532
294;424;494;533;558;571
512;498;505;519;536;550
712;609;556;530;517;519
432;505;537;551;559;566
324;420;477;515;543;561
734;604;548;525;516;520
539;557;556;552;547;547
212;367;456;509;545;564
677;567;529;519;522;528
640;592;560;541;529;528
298;428;497;535;558;569
531;512;514;525;539;551
713;614;563;536;522;522
425;504;540;556;564;570
336;426;482;519;547;565
727;603;549;527;518;523
532;553;555;552;549;549
226;375;462;513;548;567
690;577;536;524;525;531
634;593;563;545;534;532
292;424;496;535;560;571
540;516;516;526;540;552
717;618;566;538;524;524
416;500;538;556;565;572
336;425;480;517;545;564
732;604;548;526;517;522
536;556;557;554;550;550
236;383;466;516;550;568
703;586;542;529;528;532
635;597;569;550;539;537
290;425;498;538;563;575
535;512;514;525;540;553
688;599;553;530;519;522
400;485;526;546;559;568
333;417;471;507;537;558
716;591;537;515;507;514
506;534;540;539;537;540
207;357;445;497;534;554
685;566;521;508;509;515
620;581;552;534;523;522
284;415;486;525;549;560
564;526;519;525;534;544
724;626;572;542;524;522
425;510;548;564;571;575
367;447;496;529;553;568
755;626;568;542;530;531
550;573;575;571;566;563
259;403;486;534;567;582
735;612;564;548;544;546
660;623;594;575;562;557
312;448;521;561;586;596
595;557;550;557;568;577
729;640;592;566;552;552
422;515;559;580;593;601
386;460;508;542;569;587
754;629;574;550;541;546
540;569;576;575;573;575
226;382;473;526;564;586
683;573;535;526;530;539
559;547;537;532;531;537
136;311;415;478;523;550
346;353;385;422;463;497
420;377;369;379;401;433
117;232;305;357;404;445
220;256;292;330;373;414
741;543;442;394;376;384
616;580;532;492;459;445
343;454;497;509;505;497
793;663;596;554;518;493
715;679;641;607;570;539
367;502;572;603;611;599
658;614;604;604;604;596
776;691;644;616;596;584
476;568;612;633;642;641
462;525;566;596;619;631
786;671;620;598;588;590
567;603;615;618;618;619
298;440;523;574;610;630
769;643;595;580;579;585
641;625;609;598;591;593
297;441;523;571;603;620
635;578;564;570;582;595
720;642;598;575;564;568
406;508;559;585;602;613
419;477;518;548;574;594
741;626;574;552;544;551
507;550;565;570;573;578
247;390;474;526;564;586
716;593;545;531;531;540
604;585;567;555;549;550
253;399;481;528;561;578
600;540;526;530;542;554
695;613;567;542;529;531
381;482;532;557;571;581
408;459;495;523;546;564
727;610;556;531;520;525
491;535;549;553;553;556
239;379;461;511;546;566
691;571;526;513;513;520
574;560;545;536;531;532
226;373;457;506;540;558
589;523;506;509;521;533
672;592;546;521;509;511
353;457;509;535;551;560
395;442;476;503;526;543
698;585;533;509;499;504
444;497;518;526;529;534
196;340;425;479;517;540
675;547;499;484;485;493
565;546;527;515;508;509
214;360;442;489;521;537
594;521;499;498;506;515
666;588;541;514;499;499
347;453;505;530;544;551
422;457;484;506;524;538
738;614;554;524;507;507
490;536;549;551;547;546
265;396;472;516;545;560
752;614;556;533;524;524
621;604;584;568;555;548
277;421;500;544;571;582
657;582;558;555;558;562
714;639;595;569;553;549
397;503;556;582;596;601
472;505;531;554;573;586
741;633;582;558;547;549
489;544;566;575;579;583
288;414;489;536;570;589
745;615;562;543;539;545
607;597;583;572;565;564
256;406;491;540;573;590
646;570;547;546;554;563
698;626;583;559;546;547
380;489;544;571;587;596
476;501;525;546;564;579
752;638;584;557;543;544
499;552;572;578;579;582
283;414;490;537;569;588
718;598;551;536;534;542
567;569;563;558;555;557
238;386;472;523;559;579
646;561;534;532;540;550
680;610;568;545;533;535
359;470;526;555;573;582
471;491;512;531;550;564
732;621;567;541;528;530
467;526;550;559;563;568
275;400;473;519;552;572
738;604;549;529;523;529
598;589;575;563;554;552
257;404;486;533;563;578
659;575;547;542;546;552
686;621;580;557;543;541
364;478;536;566;583;590
495;509;526;544;561;574
744;635;581;554;540;541
467;532;559;570;575;580
280;405;480;527;560;580
730;600;549;531;528;535
571;572;565;558;554;555
234;384;471;522;557;576
657;567;537;532;537;545
670;608;569;547;535;535
337;457;519;551;571;580
489;497;513;531;548;562
741;629;573;545;530;531
463;527;553;564;568;572
287;407;478;522;554;573
732;601;548;529;523;529
570;573;565;558;552;552
237;386;472;522;556;574
680;580;545;537;539;545
676;616;577;554;540;538
341;463;525;557;576;585
500;505;520;537;553;566
729;624;572;546;533;534
448;518;548;561;569;575
283;401;472;517;551;572
733;600;545;525;520;527
559;566;560;554;549;551
229;379;466;517;551;570
667;569;535;528;531;538
649;596;562;542;531;531
315;440;506;541;563;574
490;490;503;521;538;553
710;607;556;530;518;521
427;499;531;546;554;562
277;391;459;503;536;557
718;585;531;511;505;513
533;545;542;538;534;536
219;366;451;501;536;555
677;569;529;518;519;525
654;600;562;539;525;522
329;449;512;543;562;569
530;518;522;533;545;554
730;628;575;546;530;528
457;526;556;568;572;576
324;428;490;530;558;575
746;616;560;538;530;534
564;576;573;567;561;560
231;385;473;525;560;578
693;586;547;538;540;545
669;616;580;559;546;544
332;458;524;558;579;588
544;529;534;545;559;570
722;627;578;554;540;540
396;488;534;556;569;579
227;354;436;490;532;560
569;479;455;457;470;493
274;348;393;425;454;482
1;102;234;324;400;454
447;333;306;318;351;388
556;454;395;368;365;381
354;409;426;430;434;441
642;565;516;486;465;456
833;704;616;552;499;470
529;598;614;605;579;554
419;514;563;586;589;579
812;686;629;600;576;560
593;621;627;624;612;599
271;427;520;575;609;620
752;637;595;585;586;587
713;662;627;607;595;590
351;485;557;595;620;629
590;568;570;581;596;608
749;658;610;586;575;577
448;535;576;597;610;619
372;461;518;556;587;608
760;634;581;560;554;562
552;578;583;583;582;586
241;393;483;536;575;597
711;597;556;545;548;557
653;612;583;565;556;557
312;445;516;555;581;594
558;532;533;543;558;571
714;624;576;552;540;542
418;504;545;566;578;587
349;435;489;526;556;576
752;619;561;537;528;534
539;563;567;564;561;562
223;376;465;518;555;575
696;580;539;527;529;535
628;591;564;548;539;539
281;418;493;534;561;575
546;515;513;524;538;552
690;602;555;531;520;523
386;477;521;543;557;567
342;421;471;507;535;556
733;601;543;518;508;514
513;542;547;545;542;543
206;359;448;500;537;557
677;562;520;508;509;516
595;565;542;528;520;521
254;392;469;512;541;556
547;506;499;507;521;533
684;594;545;519;506;508
379;470;514;535;547;556
350;422;469;502;528;545
713;589;534;510;500;505
493;526;535;535;533;535
208;355;441;492;528;548
698;572;524;508;506;510
621;584;555;537;524;521
286;418;490;528;551;561
585;538;526;529;537;544
721;629;576;547;529;526
429;514;553;570;577;581
411;475;515;542;562;575
762;638;580;553;539;539
546;577;584;582;577;574
260;406;489;539;573;589
744;618;569;553;549;551
659;626;599;581;569;565
318;454;527;567;592;602
616;570;560;564;574;582
723;643;598;573;559;559
424;518;564;587;600;608
418;481;523;553;577;595
761;639;584;560;550;554
531;569;581;583;582;584
258;403;487;538;574;594
733;609;562;547;546;552
612;594;577;566;559;560
262;409;492;540;572;589
595;541;530;536;550;564
709;623;575;550;537;540
401;496;542;565;578;588
402;462;502;531;555;573
743;620;565;540;529;533
508;548;561;563;563;564
243;385;469;519;555;575
704;583;538;524;524;531
592;574;557;546;540;541
257;398;478;524;555;571
604;541;524;526;537;548
688;609;563;538;525;526
379;479;528;552;567;575
419;466;499;525;546;562
762;633;572;542;527;528
524;563;572;571;567;565
255;399;481;529;561;578
737;609;559;541;536;538
625;604;584;570;559;556
275;420;501;546;575;588
614;555;541;544;555;564
685;613;573;551;540;542
378;481;534;561;578;589
423;468;503;530;554;572
731;614;560;536;526;531
486;534;551;557;559;563
252;387;466;515;550;571
728;596;544;526;522;528
598;583;566;553;545;544
252;398;480;527;558;573
616;548;529;530;540;549
685;610;566;542;529;530
367;473;526;553;569;578
433;471;501;525;546;562
734;617;561;535;523;525
481;532;550;556;557;560
250;386;465;514;548;567
734;600;546;526;521;526
606;591;572;558;548;546
265;410;490;535;564;577
634;563;541;540;546;554
674;609;571;548;536;536
353;466;524;554;573;583
434;469;499;525;547;564
718;605;553;529;520;524
462;517;539;547;552;558
243;376;455;504;540;562
700;574;525;509;507;515
561;554;542;534;529;531
223;370;455;504;538;556
612;534;511;510;518;528
646;580;541;520;509;511
324;437;495;526;545;556
446;465;486;506;526;541
740;616;555;524;508;509
467;523;543;547;547;549
264;392;465;510;540;557
744;606;549;526;518;519
599;589;573;559;548;544
252;401;484;531;560;574
646;566;541;538;543;548
692;621;579;555;540;538
372;482;537;565;581;588
473;497;520;540;558;571
744;632;577;550;537;537
478;537;561;570;573;576
275;403;479;526;559;579
743;609;556;536;531;537
592;587;575;565;558;557
258;405;488;536;567;583
672;583;553;547;551;557
663;609;575;555;543;543
273;415;493;536;563;578
318;378;429;472;510;538
487;428;417;424;443;469
159;268;337;386;429;467
7;142;237;311;378;432
616;435;362;342;350;377
606;530;470;432;411;412
350;436;466;472;471;470
752;638;573;532;499;479
788;707;643;591;542;509
456;565;611;622;612;590
584;596;607;614;611;599
814;710;656;626;601;583
546;610;636;646;644;636
355;479;552;598;628;640
781;659;612;596;593;596
617;623;620;616;614;615
273;428;519;573;611;632
703;610;580;577;585;595
715;653;614;593;582;584
387;503;563;595;616;626
544;548;561;577;593;607
763;660;609;583;570;572
481;552;584;598;605;612
318;435;506;552;586;607
758;628;576;557;553;561
595;597;591;584;580;582
248;402;492;544;580;600
679;584;553;549;555;564
655;606;575;558;550;553
329;452;518;555;579;592
516;512;522;538;556;572
718;618;568;543;532;536
425;503;538;555;565;575
280;393;463;509;544;567
720;588;535;516;512;521
552;557;551;545;541;543
200;358;449;502;539;560
639;544;513;508;514;523
632;578;545;526;516;517
289;416;484;521;545;557
483;479;489;505;522;537
715;604;548;520;506;507
412;489;523;537;545;552
280;388;453;495;527;547
723;588;531;508;501;506
534;546;542;536;531;531
200;355;444;496;532;550
644;544;510;503;507;514
604;561;533;517;508;509
280;405;473;511;536;549
510;490;492;503;518;531
713;606;549;519;503;503
406;487;522;537;544;550
296;397;458;498;527;546
734;597;537;513;503;507
548;558;553;545;538;536
239;384;466;513;544;559
704;590;546;531;528;529
667;617;581;557;541;535
342;464;527;559;577;582
576;552;550;556;565;571
746;650;597;568;550;546
448;531;569;585;592;595
354;449;507;546;574;591
783;645;585;560;550;552
599;608;602;594;587;583
281;429;512;559;590;605
725;619;579;568;567;570
635;608;588;575;567;567
305;440;516;559;588;602
553;529;532;546;564;579
746;641;587;560;547;549
445;526;562;578;587;595
339;435;494;533;563;584
744;617;563;541;534;541
556;573;573;569;566;567
223;380;470;523;560;581
685;576;538;529;532;540
624;587;561;546;538;540
279;414;489;531;559;574
529;504;506;519;535;551
713;611;559;532;519;522
412;496;534;551;561;569
362;439;487;520;545;563
731;607;552;528;518;522
519;547;553;552;549;550
211;365;454;508;545;564
673;562;523;513;516;523
613;576;550;534;526;527
289;417;487;526;552;564
544;513;510;519;532;544
695;604;555;529;516;517
407;491;531;549;559;566
347;427;478;512;539;557
725;600;545;521;512;516
496;530;540;541;541;543
187;344;436;492;531;554
661;546;506;497;501;510
605;565;538;522;514;515
275;404;474;513;539;552
550;511;504;510;521;532
656;578;536;513;501;504
383;468;511;532;544;553
350;420;466;498;524;542
722;595;537;511;500;504
507;535;540;538;535;535
188;346;436;490;527;547
698;569;521;505;504;509
624;585;556;536;524;521
276;412;485;524;548;559
579;534;523;526;535;543
704;616;567;539;523;521
398;491;535;556;566;572
363;437;485;518;543;560
720;599;547;525;516;520
487;526;539;543;544;547
202;353;442;496;535;557
692;566;519;506;507;514
596;568;545;530;522;523
265;400;474;516;543;557
588;534;519;521;529;539
710;619;567;538;520;519
407;498;540;559;568;573
403;463;502;529;550;564
703;596;549;528;519;523
464;513;532;540;544;548
194;343;433;490;531;555
662;543;501;491;496;506
603;565;538;523;516;517
237;377;455;499;530;546
245;314;368;413;454;488
695;544;479;455;451;463
457;491;503;507;511;518
1;1;171;281;361;419
141;115;147;199;260;321
695;486;390;355;353;369
368;417;414;406;404;411
833;667;562;493;441;416
967;833;728;644;565;510
645;707;723;704;662;612
1;84;296;414;481;509
542;406;393;420;454;477
887;716;629;594;582;575
983;858;764;701;655;625
1011;911;819;746;679;636
1020;976;917;858;794;740
929;960;951;923;878;827
1000;960;928;895;853;810
977;959;941;920;887;850
531;705;807;862;888;884
726;732;763;797;826;838
774;738;735;746;765;783
530;625;688;733;774;804
648;658;678;704;738;769
921;795;736;709;703;718
806;798;780;764;754;755
545;661;718;746;763;774
884;789;752;735;726;728
752;754;750;745;738;738
404;556;647;701;738;757
729;677;672;684;703;720
775;714;684;672;671;683
453;566;629;665;694;715
495;543;584;618;652;681
753;657;617;604;607;624
496;557;587;605;620;638
264;404;492;549;596;630
713;593;552;543;551;571
573;569;562;558;561;573
214;369;461;516;558;586
584;519;506;513;530;550
648;577;538;519;513;523
293;415;480;515;540;559
382;419;452;482;510;534
679;564;511;489;482;492
409;467;491;502;509;519
185;322;404;456;495;520
649;523;475;461;462;473
505;501;491;484;481;487
141;298;390;444;482;505
523;455;439;444;459;474
595;521;479;458;450;455
266;378;436;466;486;499
386;406;427;448;468;484
660;546;490;463;449;451
383;446;470;479;483;487
177;310;389;438;472;493
655;521;468;449;445;452
486;488;480;473;468;470
153;302;389;440;475;493
551;472;449;448;457;467
572;512;476;457;447;450
237;358;422;457;480;492
352;377;403;428;453;471
597;496;450;430;424;432
298;375;412;431;445;458
126;253;332;385;427;455
621;478;420;401;400;411
450;449;438;429;425;429
88;247;337;390;427;448
537;445;414;409;415;424
622;531;476;444;425;421
267;381;435;459;471;475
444;442;449;458;466;472
679;569;510;478;456;449
356;438;473;487;490;490
203;325;399;447;480;496
659;527;475;456;452;456
480;489;484;479;475;476
189;326;406;453;486;502
645;537;495;482;481;483
602;552;516;493;478;474
266;393;459;493;512;520
484;472;478;490;503;512
725;608;546;512;492;488
455;514;535;539;537;536
336;433;488;521;542;551
764;628;567;539;524;520
558;573;570;562;552;546
262;404;486;533;562;574
714;607;567;555;553;553
684;630;592;569;554;548
360;480;541;572;590;595
575;558;560;569;579;586
810;692;628;593;571;565
544;601;619;622;618;615
430;523;574;604;622;630
844;710;649;620;603;598
666;672;663;652;638;629
369;506;583;625;651;660
790;691;653;641;638;636
821;748;701;671;649;639
489;601;655;680;691;691
672;661;664;671;678;681
880;772;716;685;665;658
598;665;693;702;703;703
483;579;636;671;695;707
865;743;693;672;663;665
698;707;703;697;690;689
407;543;620;665;696;711
808;714;680;671;672;677
824;758;717;693;677;674
477;597;659;691;709;716
657;651;659;672;686;696
813;728;687;667;657;660
496;587;635;660;676;689
395;498;565;612;650;677
791;668;621;607;608;622
528;572;591;601;612;626
219;379;479;543;593;626
697;587;552;549;562;580
635;594;567;554;552;563
340;457;519;554;580;598
599;564;555;559;570;583
724;639;592;565;550;552
374;480;533;558;573;585
293;396;465;512;549;574
705;578;529;513;513;525
486;514;523;527;531;540
212;353;437;490;529;553
721;590;538;520;518;524
630;591;559;538;524;523
297;429;497;534;555;565
596;552;541;543;550;556
742;645;591;560;540;535
435;520;558;574;579;582
407;479;524;554;575;587
811;671;606;575;559;556
567;598;602;598;590;585
311;447;524;569;598;610
775;655;608;590;585;583
686;651;624;605;591;586
366;494;562;599;621;628
658;612;601;604;611;617
774;687;639;611;595;591
459;552;596;617;628;634
401;486;541;579;608;627
763;644;596;578;573;580
486;540;563;575;583;592
216;368;462;523;568;597
713;589;545;535;542;554
629;592;566;551;544;549
325;447;512;548;573;587
634;580;563;561;567;575
749;660;608;576;557;553
398;504;555;578;589;596
398;469;517;550;576;592
783;649;590;564;552;555
544;577;585;584;581;581
291;426;504;552;584;600
781;651;597;577;571;571
662;635;611;593;580;576
304;450;529;572;600;611
607;566;560;568;581;592
655;596;566;552;548;554
255;393;472;518;551;574
189;297;379;441;496;536
460;386;375;389;417;453
143;236;296;341;385;428
1;82;188;269;342;401
527;366;307;296;313;345
481;417;369;343;334;346
192;298;345;366;380;392
517;450;418;402;394;394
572;501;454;421;393;383
194;322;386;416;428;432
208;283;338;379;408;425
544;432;389;375;373;381
243;312;346;366;381;393
5;154;249;313;363;395
494;370;328;321;331;347
315;318;315;316;323;336
1;143;231;286;328;356
356;294;282;290;310;331
412;344;307;289;285;296
81;194;254;287;311;331
156;201;238;269;298;321
512;378;316;288;278;284
227;282;300;305;306;311
60;177;246;289;318;335
570;422;357;329;315;312
411;395;374;355;338;330
71;218;297;340;364;372
439;373;355;355;360;364
492;423;383;361;347;344
153;269;329;361;380;389
226;271;308;339;365;382
541;423;370;348;339;344
238;306;336;349;357;365
21;162;249;306;348;373
554;408;351;332;331;337
391;379;363;351;344;346
45;195;279;327;359;376
428;358;339;340;350;360
451;392;357;339;330;334
134;247;307;340;362;375
255;281;306;330;353;369
562;437;376;347;334;336
247;316;344;354;358;362
30;172;257;311;350;372
547;407;352;334;332;337
387;378;363;353;347;348
60;205;285;332;363;379
475;389;360;356;361;368
495;429;388;364;350;349
160;277;336;367;385;395
316;330;348;366;383;394
630;496;428;393;373;369
314;380;402;407;405;403
136;262;336;381;410;424
657;507;442;415;402;398
450;454;443;432;421;415
134;280;362;409;438;450
584;486;450;440;441;442
626;547;495;463;441;433
280;394;448;472;483;486
434;446;460;473;484;489
729;601;535;498;475;466
398;472;499;506;504;501
215;345;422;470;502;516
729;582;521;497;487;486
517;523;516;508;501;498
187;338;425;476;510;525
636;540;506;500;504;510
655;584;540;513;497;494
318;433;489;517;533;540
470;482;496;512;526;536
738;620;559;528;509;506
398;480;514;527;531;534
236;362;439;489;524;543
768;611;545;519;509;511
556;559;548;537;528;526
242;386;466;512;542;556
672;578;544;536;537;541
654;599;562;540;526;524
299;428;496;531;554;564
491;494;508;525;543;555
757;635;573;542;525;524
403;489;525;539;546;551
251;374;451;500;536;557
759;610;548;524;517;521
554;559;550;541;535;535
230;378;463;511;544;560
694;589;550;540;540;545
659;605;569;546;531;529
310;437;504;539;560;570
513;509;520;535;550;562
742;630;574;545;530;529
393;482;522;540;549;556
289;396;464;509;543;563
777;626;561;535;525;528
531;550;549;544;539;540
194;354;447;502;540;560
681;572;535;527;532;539
663;602;562;538;525;525
322;444;505;537;557;567
544;530;532;541;552;562
761;650;590;558;538;534
418;506;544;558;564;567
318;423;488;530;560;577
805;653;586;558;545;545
565;583;580;573;565;563
223;384;477;531;566;584
712;602;564;555;558;563
683;625;588;565;552;550
302;440;512;551;575;587
543;529;535;549;564;577
746;640;585;558;543;544
416;503;541;558;567;575
325;425;488;529;561;580
796;647;581;554;543;545
552;573;573;567;561;561
254;401;486;535;568;585
732;618;575;563;562;564
667;621;589;569;555;553
308;444;516;555;579;591
538;527;534;548;565;578
